292903fa88d000b48ebdacd12eaf124e
ad7a5ca44f37892d599891e5ef0272fb
bb36feaac46d7aaab418138b578fd7e0
d9eaabe53adedb62bc74b7eb0a9477d4
9eef6a1f927654f24801f58fe67bb1d4
4f73d96b54d1c86f38ee595f7956301f
09bb63bf7635f9cfd50f022e7a3b0dba
4297f44b13955235245b2497399d7a93
dd015dd7bdf4c7ecb0a40e941e13d4a8
562348edd2ded080999f748733fcc1b9
3acf5c7b740d6e2538f3a7b88cf069b3
caca9dcb6bffe6e8c250476805592f7f
ba5a45fe9a60be873165001071f1b6f8
c7a4476fc64b75ead800da9ea2b7d072
272928fa1b709c0c973a9ac1af54e417
be121740bf988b2225a313fa1f107ca1
93477ab6a7fe55f3791cddb14faeb22a
e62aa9e0a171b09d6d505f1c00a6bfd0
b51596da00d7f8925febed57408ef2c6
b321de3bdc299ec807e9f795d7d9deeb
14f87ec1e760d16c0380c74ec7678b04
6824cc4c7c33aabf02553093853c2e69
1fc3a78289477bb2cf4410449c07c7a0
aae6635e044ac56046b2893a529b5114
eda56def9e82a3936a75aff3f4e66330
63d4399b76e9f9d8ee6cb3acb484dba6
163218e536c13ff2fc9a4d76e34be085
f7c55382af8bd71e8c95299a62da3771
5feb24858516d415d6a8adb3a36c505c
069a6a9ccaaca7967a0c43cb5e161187
369389d19e24204b4927e30dd7c39efc
149afd631693c895f81e508eb5aaef37
40be4e59b9a2a2b5dffb918c0e86b3d7
8dbdda48fb8748d6746f1965824e966a
6967cabefd763ac1a1a88e11159957db
1fbfb23351e3580651395ab721f5e935
f71aaffe7b70624bed6f1cc1b0b6240e
8b4cf0258846b23e0a8272bee22c38dd
9be0a80012d71ede383e06ad6f6c9cee
d4705b9f42c96eeb0b9fb53266013516
0f5366b3b19afc3184d23bc73d8cd311
e6e66b8981c1030d5650da159e79539a
b60eb83bf533eecf1bde65940925a981
91111fb1f8b088438d80367df81cb6cf
670b14728ad9902aecba32e22fa4f6bd
b2e9c66d3b49ce3d50986a881ced739d
fc0586aca6e42cffade83252446d0613
3bfbd81a177808b23f694edad1df7751
7e531bafed580009c89b1666c599bffe
b0fc08a18d29407428cbac5d2e5cc682
1e3cf6a218d8e9d0866ad89e7baa41d4
3f06a7247d5c04d0618552dd3276ac40
7548c732c21feda41e24e6620a34d887
9ce44f88a25272b6d9cbb430ebbcfcf1
51e006eb864cb1ee38290fcd5b4d92e3
fea0f1f6fede90bd0a925b4194deac11
e807f1fcf82d132f9bb018ca6738a19f
b5cf4e3f417db6283de345b00da02187
fb7371fffcbac22e247092ad39cb8876
9c700e931fc38fb7ca747676608c8e86
5efd5935913b175e4ea16e9bd9b6f53a
7790ffbb26cf6409e707105e92cde91e
79d8e340812f9db0bbfa508beb319dea
abb45c192f0818ff22b7ddda8566dac3
b43b770788d71abc92442cc450c4c966
02408123caf6bb364630361db9b81f7e
0babab16fabc4cf5ecf2f68d54ef6cfc
5c2bf15004e661d7b7c9394617143d07
6b1628b016dff46e6fa35684be6acc96
e338bc584bd1c7f87b8a5bf70a3cf80e
9d1ce632ce21568d9dd2e41f5aa7a149
088495f30901580ddd5171531cd26649
d7ed8e65834e0f58fa7c43f332e64cfe
d2f0c294711426f440af6c188232e774
2e247e2eb505c42b362e80ed4d05b078
578117797814c9c4c1d62cf39f5d80ca
e052450f29b2e0e9a53fd4eb389e25a9
554956c54d46effdcf1417bd77586e99
2698b9129df8bff255b13562392bf895
aa17e6b0aeff8b95b43aac9c489e3125
2a711da9185064896ee6091d294c834e
d05560f6566db54140c1c5adf58cf70f
4d04cedd6d05b1f16a4404ff5a1fa4af
3447adfd742cdfb9048a3b29baf1ae7d
0d78658b259edcf59d78044457275aa4
23f9d50ecd20ccc464f4ad45a3328948
9095eae491e5c0c17a2ef89477393ec4
c07f195e1298783ca3f44de411afa826
0fafe0242e13e2ad17e1e653ed89b0dc
7d8bc5f1a8d3787d06ef11c97d4655df
17dcf66c180943915f6dfc07e5c0fe96
6ed61d4b80bb0f81937b32418e98adca
abd7372bba55577590736ef6cb3533c6
823fec7a2632ea7b498c1d0d11c11377
4a6ec9363d48514d01d5d5e0247289e7
3750c667d5cd8aecc0a9213b362066e9
b99cc420eb25205168e83190bae48a12
24eb05d18318ac2db8b2b959315d10f2
ec726fd938bbf930b86581442b18bec7
4c96f8324e3ba54a99e78249b95daa30
